<svg id="Layer_1" data-name="Layer 1" xmlns="http://www.w3.org/2000/svg" viewBox="0 0 98.48 2699.87">
    <defs>
        <style>.cls-1{fill:#003e66;}</style>
    </defs>
    <title>Pillar2</title>
    <path class="cls-1" d="M97.92.38A4.36,4.36,0,0,1,98,.91q0,3.51,0,7c0,.2,0,.4,0,.59-.56.17-97.18.23-98.36.06L-.48.38Z" transform="translate(0.48 -0.38)"/>
    <path class="cls-1"
          d="M12.65,2665.79V32.44c.59-.16,70.62-.23,72.15-.08.15.53.2,2576.27,0,2633.45a2.42,2.42,0,0,1-2.43,2.42H15.08A2.43,2.43,0,0,1,12.65,2665.79Zm20-2592.95q0-14.65,0-29.3A6.66,6.66,0,0,0,32.53,42a3.35,3.35,0,0,0-3.23-2.6,3.41,3.41,0,0,0-3.14,3,10.27,10.27,0,0,0-.08,1.31c0,19.43,0,2593.86,0,2613.28a9.45,9.45,0,0,0,.08,1.31,3.37,3.37,0,0,0,3,2.91,3.29,3.29,0,0,0,3.32-2.56,6.5,6.5,0,0,0,.16-1.52C32.69,2647.38,32.69,82.61,32.69,72.85ZM52,72.79q0-14.57,0-29.14a7.7,7.7,0,0,0-.12-1.45,3.37,3.37,0,0,0-3.09-2.77,3.28,3.28,0,0,0-3.16,2.37,5.76,5.76,0,0,0-.23,1.67c0,19.58,0,2594.16,0,2613.75a6.61,6.61,0,0,0,.13,1.3,3.22,3.22,0,0,0,6.35,0A7.67,7.67,0,0,0,52,2657C52,2647.27,52,82.53,52,72.79Zm19.48.08q0-14.57,0-29.14c0-.36,0-.72,0-1.08a3.4,3.4,0,0,0-3.17-3.21,3.33,3.33,0,0,0-3.3,2.8,5.45,5.45,0,0,0-.08,1.15c0,19.63,0,2594.27,0,2613.9a7.59,7.59,0,0,0,0,.85,3.42,3.42,0,0,0,3,3.08,3.26,3.26,0,0,0,3.43-2.6,6.44,6.44,0,0,0,.14-1.53C71.44,2647.35,71.44,82.61,71.44,72.87Z"
          transform="translate(0.48 -0.38)"/>
    <path class="cls-1" d="M7.14,2687.15l.7-.51a11.11,11.11,0,0,0,4.81-8.16,19.21,19.21,0,0,0-.1-5.22,1,1,0,0,1,0-.23c.5-.13,57.51-.2,69.94-.1a2.48,2.48,0,0,1,2.45,2.31h0a21,21,0,0,0,1.64,7.32,10.42,10.42,0,0,0,3.44,4.27l.4.31Z" transform="translate(0.48 -0.38)"/>
    <path class="cls-1" d="M90.33,13.21a1.46,1.46,0,0,0-.28.12,11.28,11.28,0,0,0-4.2,6.29,25,25,0,0,0-.94,6.61c0,.3,0,.6,0,1H12.56c.06-.7.13-1.35.18-2a15,15,0,0,0-.85-6.59,10.59,10.59,0,0,0-4-5L7.13,13H90.19Z" transform="translate(0.48 -0.38)"/>
    <path class="cls-1" d="M95.56,2700.25H2a2.43,2.43,0,0,1-2.43-2.43v-2.76a2.42,2.42,0,0,1,2.4-2.43c13.56-.12,80.37-.16,93.57-.06a2.42,2.42,0,0,1,2.4,2.37c0,.92,0,2,0,2.91A2.43,2.43,0,0,1,95.56,2700.25Z" transform="translate(0.48 -0.38)"/>
</svg>