<svg id="Layer_1" data-name="Layer 1" xmlns="http://www.w3.org/2000/svg" viewBox="0 0 98.48 819.87">
    <defs>
        <style>.cls-1{fill:#003e66;}</style>
    </defs>
    <title>FSC Piller</title>
    <path class="cls-1" d="M97.92-.24A4.36,4.36,0,0,1,98,.29q0,3.51,0,7c0,.2,0,.4,0,.59-.56.17-97.18.23-98.36.06L-.48-.24Z" transform="translate(0.48 0.24)"/>
    <path class="cls-1"
          d="M12.65,787.6V31.82c.59-.16,70.62-.23,72.15-.08.16.54.2,754.9,0,755.86Zm20-715.38q0-14.65,0-29.3a6.66,6.66,0,0,0-.15-1.53,3.35,3.35,0,0,0-3.23-2.6,3.41,3.41,0,0,0-3.14,3,10.27,10.27,0,0,0-.08,1.31c0,19.43,0,713.86,0,733.28a9.45,9.45,0,0,0,.08,1.31,3.37,3.37,0,0,0,3,2.91A3.29,3.29,0,0,0,32.52,778a6.5,6.5,0,0,0,.16-1.52C32.69,766.75,32.69,82,32.69,72.22ZM52,72.16Q52,57.59,52,43a7.7,7.7,0,0,0-.12-1.45,3.37,3.37,0,0,0-3.09-2.77,3.28,3.28,0,0,0-3.16,2.37,5.76,5.76,0,0,0-.23,1.67c0,19.58,0,714.16,0,733.75a6.61,6.61,0,0,0,.13,1.3,3.22,3.22,0,0,0,6.35,0,7.67,7.67,0,0,0,.13-1.53C52,766.64,52,81.9,52,72.16Zm19.48.08q0-14.57,0-29.14c0-.36,0-.72,0-1.08a3.4,3.4,0,0,0-3.17-3.21,3.33,3.33,0,0,0-3.3,2.8,5.45,5.45,0,0,0-.08,1.15c0,19.63,0,714.27,0,733.9a7.59,7.59,0,0,0,0,.85,3.42,3.42,0,0,0,3,3.08,3.26,3.26,0,0,0,3.43-2.6,6.44,6.44,0,0,0,.14-1.53C71.44,766.72,71.44,82,71.44,72.24Z"
          transform="translate(0.48 0.24)"/>
    <path class="cls-1" d="M7.14,806.53l.7-.51a11.11,11.11,0,0,0,4.81-8.16,19.21,19.21,0,0,0-.1-5.22,1,1,0,0,1,0-.23c.55-.15,70.91-.21,72.3-.06,0,.75,0,1.51.1,2.27a21,21,0,0,0,1.64,7.32A10.42,10.42,0,0,0,90,806.21l.4.31Z" transform="translate(0.48 0.24)"/>
    <path class="cls-1" d="M90.33,12.59a1.46,1.46,0,0,0-.28.12A11.28,11.28,0,0,0,85.85,19a25,25,0,0,0-.94,6.61c0,.3,0,.6,0,1H12.56c.06-.7.13-1.35.18-2A15,15,0,0,0,11.89,18a10.59,10.59,0,0,0-4-5l-.8-.57H90.19Z" transform="translate(0.48 0.24)"/>
    <path class="cls-1" d="M97.87,819.63H-.4c0-2.56,0-5.06,0-7.57.53-.17,97.11-.23,98.24-.06A50.91,50.91,0,0,1,97.87,819.63Z" transform="translate(0.48 0.24)"/>
</svg>